%!PS-Adobe-2.0 EPSF-2.0
%%BoundingBox:  0 0 567 407
%%Title: plots/sig_bkg.eps: 
%%Creator: ROOT Version 6.20/02
%%CreationDate: Mon Aug 10 14:56:15 2020
%%DocumentNeededResources: ProcSet (FontSetInit)
%%EndComments
%%BeginProlog
80 dict begin
/s {stroke} def /l {lineto} def /m {moveto} def /t {translate} def
/r {rotate} def /rl {roll}  def /R {repeat} def
/d {rlineto} def /rm {rmoveto} def /gr {grestore} def /f {eofill} def
/c {setrgbcolor} def /black {0 setgray} def /sd {setdash} def
/cl {closepath} def /sf {scalefont setfont} def /lw {setlinewidth} def
/box {m dup 0 exch d exch 0 d 0 exch neg d cl} def
/NC{systemdict begin initclip end}def/C{NC box clip newpath}def
/bl {box s} def /bf {gsave box gsave f grestore 1 lw [] 0 sd s grestore} def /Y { 0 exch d} def /X { 0 d} def 
/K {{pop pop 0 moveto} exch kshow} bind def
/ita {/ang 15 def gsave [1 0 ang dup sin exch cos div 1 0 0] concat} def 
/mp {newpath /y exch def /x exch def} def
/side {[w .77 mul w .23 mul] .385 w mul sd w 0 l currentpoint t -144 r} def
/mr {mp x y w2 0 360 arc} def /m24 {mr s} def /m20 {mr f} def
/mb {mp x y w2 add m w2 neg 0 d 0 w neg d w 0 d 0 w d cl} def
/mt {mp x y w2 add m w2 neg w neg d w 0 d cl} def
/w4 {w 4 div} def
/w6 {w 6 div} def
/w8 {w 8 div} def
/m21 {mb f} def /m25 {mb s} def /m22 {mt f} def /m26{mt s} def
/m23 {mp x y w2 sub m w2 w d w neg 0 d cl f} def
/m27 {mp x y w2 add m w3 neg w2 neg d w3 w2 neg d w3 w2 d cl s} def
/m28 {mp x w2 sub y w2 sub w3 add m w3 0 d  0 w3 neg d w3 0 d 0 w3 d w3 0 d  0 w3 d w3 neg 0 d 0 w3 d w3 neg 0 d 0 w3 neg d w3 neg 0 d cl s } def
/m29 {mp gsave x w2 sub y w2 add w3 sub m currentpoint t 4 {side} repeat cl fill gr} def
/m30 {mp gsave x w2 sub y w2 add w3 sub m currentpoint t 4 {side} repeat cl s gr} def
/m31 {mp x y w2 sub m 0 w d x w2 sub y m w 0 d x w2 sub y w2 add m w w neg d x w2 sub y w2 sub m w w d s} def
/m32 {mp x y w2 sub m w2 w d w neg 0 d cl s} def
/m33 {mp x y w2 add m w3 neg w2 neg d w3 w2 neg d w3 w2 d cl f} def
/m34 {mp x w2 sub y w2 sub w3 add m w3 0 d  0 w3 neg d w3 0 d 0 w3 d w3 0 d  0 w3 d w3 neg 0 d 0 w3 d w3 neg 0 d 0 w3 neg d w3 neg 0 d cl f } def
/m35 {mp x y w2 add m w2 neg w2 neg d w2 w2 neg d w2 w2 d w2 neg w2 d x y w2 sub m 0 w d x w2 sub y m w 0 d s} def
/m36 {mb x w2 sub y w2 add m w w neg d x w2 sub y w2 sub m w w d s} def
/m37 {mp x y m w4 neg w2 d w4 neg w2 neg d w2 0 d  w4 neg w2 neg d w2 0 d w4 neg w2 d w2 0 d w4 neg w2 d w4 neg w2 neg d cl s} def
/m38 {mp x w4 sub y w2 add m w4 neg w4 neg d 0 w2 neg d w4 w4 neg d w2 0 d w4 w4 d 0 w2 d w4 neg w4 d w2 neg 0 d x y w2 sub m 0 w d x w2 sub y m w 0 d cl s} def
/m39 {mp x y m w4 neg w2 d w4 neg w2 neg d w2 0 d  w4 neg w2 neg d w2 0 d w4 neg w2 d w2 0 d w4 neg w2 d w4 neg w2 neg d cl f} def
/m40 {mp x y m w4 w2 d w4 w4 neg d w2 neg w4 neg d w2 w4 neg d w4 neg w4 neg d w4 neg w2 d w4 neg w2 neg d w4 neg w4 d w2 w4 d w2 neg w4 d w4 w4 d w4 w2 neg d cl s} def
/m41 {mp x y m w4 w2 d w4 w4 neg d w2 neg w4 neg d w2 w4 neg d w4 neg w4 neg d w4 neg w2 d w4 neg w2 neg d w4 neg w4 d w2 w4 d w2 neg w4 d w4 w4 d w4 w2 neg d cl f} def
/m42 {mp x y w2 add m w8 neg w2 -3 4 div mul d w2 -3 4 div mul w8 neg d w2 3 4 div mul w8 neg d w8 w2 -3 4 div mul d w8 w2 3 4 div mul d w2 3 4 div mul w8 d w2 -3 4 div mul w8 d w8 neg w2 3 4 div mul d cl s} def
/m43 {mp x y w2 add m w8 neg w2 -3 4 div mul d w2 -3 4 div mul w8 neg d w2 3 4 div mul w8 neg d w8 w2 -3 4 div mul d w8 w2 3 4 div mul d w2 3 4 div mul w8 d w2 -3 4 div mul w8 d w8 neg w2 3 4 div mul d cl f} def
/m44 {mp x y m w6 neg w2 d w2 2 3 div mul 0 d w6 neg w2 neg d w2 w6 d 0 w2 -2 3 div mul d w2 neg w6 d w6 w2 neg d w2 -2 3 div mul 0 d w6 w2 d w2 neg w6 neg d 0 w2 2 3 div mul d w2 w6 neg d cl s} def
/m45 {mp x y m w6 neg w2 d w2 2 3 div mul 0 d w6 neg w2 neg d w2 w6 d 0 w2 -2 3 div mul d w2 neg w6 d w6 w2 neg d w2 -2 3 div mul 0 d w6 w2 d w2 neg w6 neg d 0 w2 2 3 div mul d w2 w6 neg d cl f} def
/m46 {mp x y w4 add m w4 neg w4 d w4 neg w4 neg d  w4 w4 neg d w4 neg w4 neg d w4 w4 neg d w4 w4 d w4 w4 neg d w4 w4 d w4 neg w4 d w4 w4 d w4 neg w4 d w4 neg w4 neg d cl s} def
/m47 {mp x y w4 add m w4 neg w4 d w4 neg w4 neg d w4 w4 neg d w4 neg w4 neg d  w4 w4 neg d w4 w4 d w4 w4 neg d w4 w4 d w4 neg w4 d w4 w4 d w4 neg w4 d w4 neg w4 neg d cl f} def
/m48 {mp x y w4 add m w4 neg w4 d w4 neg w4 neg d w4 w4 neg d  w4 neg w4 neg d w4 w4 neg d w4 w4 d w4 w4 neg d w4 w4 d w4 neg w4 d w4 w4 d w4 neg w4 d w4 neg w4 neg d  w4 w4 neg d w4 neg w4 neg d w4 neg w4 d w4 w4 d cl f} def
/m49 {mp x w2 sub w3 add y w2 sub w3 add m  0 w3 neg d w3 0 d 0 w3 d w3 0 d 0 w3 d w3 neg 0 d 0 w3 d w3 neg 0 d 0 w3 neg d w3 neg 0 d 0 w3 neg d w3 0 d 0 w3 d w3 0 d 0 w3 neg d w3 neg 0 d cl f } def
/m2 {mp x y w2 sub m 0 w d x w2 sub y m w 0 d s} def
/m5 {mp x w2 sub y w2 sub m w w d x w2 sub y w2 add m w w neg d s} def
%%IncludeResource: ProcSet (FontSetInit)
%%IncludeResource: font Times-Roman
%%IncludeResource: font Times-Italic
%%IncludeResource: font Times-Bold
%%IncludeResource: font Times-BoldItalic
%%IncludeResource: font Helvetica
%%IncludeResource: font Helvetica-Oblique
%%IncludeResource: font Helvetica-Bold
%%IncludeResource: font Helvetica-BoldOblique
%%IncludeResource: font Courier
%%IncludeResource: font Courier-Oblique
%%IncludeResource: font Courier-Bold
%%IncludeResource: font Courier-BoldOblique
%%IncludeResource: font Symbol
%%IncludeResource: font ZapfDingbats
/reEncode {exch findfont dup length dict begin {1 index /FID eq  {pop pop} {def} ifelse } forall /Encoding exch def currentdict end dup /FontName get exch definefont pop } def [/Times-Bold /Times-Italic /Times-BoldItalic /Helvetica /Helvetica-Oblique
 /Helvetica-Bold /Helvetica-BoldOblique /Courier /Courier-Oblique /Courier-Bold /Courier-BoldOblique /Times-Roman /AvantGarde-Book /AvantGarde-BookOblique /AvantGarde-Demi /AvantGarde-DemiOblique /Bookman-Demi /Bookman-DemiItalic /Bookman-Light
 /Bookman-LightItalic /Helvetica-Narrow /Helvetica-Narrow-Bold /Helvetica-Narrow-BoldOblique /Helvetica-Narrow-Oblique /NewCenturySchlbk-Roman /NewCenturySchlbk-Bold /NewCenturySchlbk-BoldItalic /NewCenturySchlbk-Italic /Palatino-Bold
 /Palatino-BoldItalic /Palatino-Italic /Palatino-Roman ] {ISOLatin1Encoding reEncode } forall
%%EndProlog
%%BeginSetup
%%EndSetup
newpath  gsave  .25 .25 scale  gsave  0 0 t black[  ] 0 sd 3 lw 0.999 0.999 0.999 c 2268 1630 0 0 bf black 0.999 0.999 0.999 c 1610 1141 408 326 bf black 1610 1141 408 326 bl 0.999 0.999 0.999 c 1610 1141 408 326 bf black 1610 1141 408 326 bl 0 0 0.8
 c 6 lw 1 1 1 c black 0 0 0.8 c 408 326 m 580 X 1 Y 16 X 1 Y 16 X 8 Y 16 X 10 Y 16 X 18 Y 16 X 29 Y 16 X 44 Y 17 X 50 Y 16 X 44 Y 16 X 62 Y 16 X 39 Y 16 X 45 Y 16 X 61 Y 16 X 37 Y 16 X 74 Y 16 X 83 Y 16 X 73 Y 17 X 95 Y 16 X 18 Y 16 X -7 Y 16 X -76 Y
 16 X -215 Y 16 X -278 Y 16 X -185 Y 16 X -30 Y 16 X -1 Y 628 X s black 3 lw 408 326 m 1610 X s 408 361 m -35 Y s 489 343 m -17 Y s 569 343 m -17 Y s 650 343 m -17 Y s 730 361 m -35 Y s 811 343 m -17 Y s 891 343 m -17 Y s 972 343 m -17 Y s 1052 361 m
 -35 Y s 1133 343 m -17 Y s 1213 343 m -17 Y s 1294 343 m -17 Y s 1374 361 m -35 Y s 1455 343 m -17 Y s 1535 343 m -17 Y s 1616 343 m -17 Y s 1696 361 m -35 Y s 1777 343 m -17 Y s 1857 343 m -17 Y s 1938 343 m -17 Y s 2018 361 m -35 Y s 2018 361 m
 -35 Y s
 gsave  2268 1630 0 0 C 381.751 216.516 t 0 r /Helvetica findfont 91.1645 sf 0 0 m (0) show NC gr 
 gsave  2268 1630 0 0 C 666.64 216.516 t 0 r /Helvetica findfont 91.1645 sf 0 0 m (0.2) show NC gr 
 gsave  2268 1630 0 0 C 988.565 216.516 t 0 r /Helvetica findfont 91.1645 sf 0 0 m (0.4) show NC gr 
 gsave  2268 1630 0 0 C 1310.49 216.516 t 0 r /Helvetica findfont 91.1645 sf 0 0 m (0.6) show NC gr 
 gsave  2268 1630 0 0 C 1632.41 216.516 t 0 r /Helvetica findfont 91.1645 sf 0 0 m (0.8) show NC gr 
 gsave  2268 1630 0 0 C 1999.92 216.516 t 0 r /Helvetica findfont 91.1645 sf 0 0 m (1) show NC gr 
 gsave  2268 1630 0 0 C 1085.43 136.747 t 0 r /Helvetica findfont 91.1645 sf 0 0 m (BDTG) show NC gr  408 1467 m 1610 X s 408 1432 m 35 Y s 489 1449 m 18 Y s 569 1449 m 18 Y s 650 1449 m 18 Y s 730 1432 m 35 Y s 811 1449 m 18 Y s 891 1449 m 18 Y s
 972 1449 m 18 Y s 1052 1432 m 35 Y s 1133 1449 m 18 Y s 1213 1449 m 18 Y s 1294 1449 m 18 Y s 1374 1432 m 35 Y s 1455 1449 m 18 Y s 1535 1449 m 18 Y s 1616 1449 m 18 Y s 1696 1432 m 35 Y s 1777 1449 m 18 Y s 1857 1449 m 18 Y s 1938 1449 m 18 Y s
 2018 1432 m 35 Y s 2018 1432 m 35 Y s 408 326 m 1141 Y s 456 326 m -48 X s 432 406 m -24 X s 432 486 m -24 X s 432 566 m -24 X s 432 646 m -24 X s 456 727 m -48 X s 432 807 m -24 X s 432 887 m -24 X s 432 967 m -24 X s 432 1047 m -24 X s 456 1127 m
 -48 X s 456 1127 m -48 X s 432 1207 m -24 X s 432 1287 m -24 X s 432 1368 m -24 X s 432 1448 m -24 X s
 gsave  2268 1630 0 0 C 336.169 293.436 t 0 r /Helvetica findfont 91.1645 sf 0 0 m (0) show NC gr 
 gsave  2268 1630 0 0 C 210.818 695.129 t 0 r /Helvetica findfont 91.1645 sf 0 0 m (0.05) show NC gr 
 gsave  2268 1630 0 0 C 276.342 1093.97 t 0 r /Helvetica findfont 91.1645 sf 0 0 m (0.1) show NC gr 
 gsave  2268 1630 0 0 C 222.213 538.44 t 90 r /Helvetica findfont 91.1645 sf 0 0 m (Events/ 10.0 MeV) show NC gr  2018 326 m 1141 Y s 1971 326 m 47 X s 1994 406 m 24 X s 1994 486 m 24 X s 1994 566 m 24 X s 1994 646 m 24 X s 1971 727 m 47 X s 1994 807
 m 24 X s 1994 887 m 24 X s 1994 967 m 24 X s 1994 1047 m 24 X s 1971 1127 m 47 X s 1971 1127 m 47 X s 1994 1207 m 24 X s 1994 1287 m 24 X s 1994 1368 m 24 X s 1994 1448 m 24 X s 1 0 0 c 6 lw 1 1 1 c black 1 0 0 c 408 326 m 532 X 1 Y 16 X 1 Y 16 X 5
 Y 16 X 14 Y 16 X 27 Y 16 X 47 Y 16 X 78 Y 16 X 103 Y 16 X 103 Y 16 X 102 Y 17 X 73 Y 16 X 42 Y 32 X -23 Y 16 X -20 Y 16 X -25 Y 16 X -42 Y 16 X -12 Y 16 X -18 Y 16 X -28 Y 17 X -50 Y 16 X -46 Y 16 X -72 Y 16 X -81 Y 16 X -80 Y 16 X -66 Y 16 X -29 Y
 16 X -4 Y 644 X s black 3 lw 1 1 1 c 454 277 1587 1141 bf black
 gsave  2268 1630 0 0 C 1700.79 1333.28 t 0 r /Helvetica findfont 51.28 sf 0 0 m (signal events) show NC gr  1 1 1 c 1604 1300 m 80 X 97 Y -80 X f 0 0 0.8 c 6 lw 1604 1348 m 80 X s black 3 lw /w 2 def /w2 {w 2 div} def /w3 {w 3 div} def 1644 1348 m20
 6 lw
 gsave  2268 1630 0 0 C 1700.79 1193.68 t 0 r /Helvetica findfont 51.28 sf 0 0 m (bkg events) show NC gr  1 1 1 c 3 lw 1604 1161 m 80 X 97 Y -80 X f 6 lw 1 0 0 c 1604 1210 m 80 X s black 3 lw 1644 1210 m20 6 lw
 gr  gr showpage
end
%%EOF
